{
    "4813927926153257347":"https://static.accesstrade.vn/adv/img/logo/shopee-logo.png",
    "4864845754790061679":"https://static.accesstrade.vn/adv/img/logo/1200x630bb.jpg",
    "4839282299983657250":"https://static.accesstrade.vn/adv/img/logo/fahasa.png",
    "4751584435713464237":"https://static.accesstrade.vn/adv/img/logo/shopee-logo.png",
    "4699579235627284132":"https://static.accesstrade.vn/adv/img/logo/benthanh.png",
    "4819056527922237776":"https://static.accesstrade.vn/adv/img/logo/vuivui.png",
    "4761859642716132524":"https://static.accesstrade.vn/adv/img/logo/logo-laneige.png",
    "4557337022599008321":"http://static.accesstrade.vn/logos/logo%20canifa.png",
    "4756680517290724173":"https://static.accesstrade.vn/adv/img/logo/best-price.jpg",
    "4704521809526929067":"https://static.accesstrade.vn/adv/img/logo/klook.jpg",
    "4348614231480407268":"https://cdn.accesstrade.vn/logos/tiki.png",
    "4653867593571754072":"https://pub.accesstrade.vn/static/logos/logo_vinaphone.png",
    "4680231782778458037":"http://static.accesstrade.vn/logos/centralonline-logo.svg",
    "4683118304973576719":"http://static.accesstrade.vn/logos/konvy.png",
    "4717180244990941643":"https://static.accesstrade.vn/adv/img/logo/bookingcom-logo.jpg",
    "4626194976271211687":"http://static.accesstrade.vn/logos/logo-mykingdom.png",
    "4714771872422299592":"http://static.accesstrade.vn/logos/daonuan.png",
    "4714643531361134725":"http://static.accesstrade.vn/logos/logo_fado.vn-1200x300.png",
    "4706167658922321767":"http://static.accesstrade.vn/logos/Dunlop.jpg",
    "4701554769095767293":"http://help.accesstrade.vn/wp-content/uploads/2017/10/fiditour.png",
    "4608980142738776801":"http://static.accesstrade.vn/logos/logo-agoda.png",
    "4679846744229907323":"http://help.accesstrade.vn/wp-content/uploads/2017/10/hnam.jpg",
    "4685018329342904162":"http://help.accesstrade.vn/wp-content/uploads/2017/10/vuabia.png",
    "4635122045354014896":"http://static.accesstrade.vn/logos/logo_dichung.png",
    "4655179208549280499":"http://static.accesstrade.vn/logos/logo_20170802030921.png",
    "4653913362854592902":"http://static.accesstrade.vn/logos/foodizzi.jpg",
    "4663879048915856767":"https://pub.accesstrade.vn/static/logos/logo_pubokid.png",
    "4655345305775767125":"http://static.accesstrade.vn/logos/lychee.jpg",
    "4564780082073769169":"https://cdn.accesstrade.vn/logos/doctordong.jpeg",
    "4641667674585727099":"https://partner.accesstrade.vn/static/logos/aeon_logo.png",
    "4623294344051941297":"http://static.accesstrade.vn/logos/logo_queenie.png",
    "4611700264874254611":"http://static.accesstrade.vn/logos/logo_eropi.png",
    "4589456358814430528":"http://static.accesstrade.vn/logos/lanuong.PNG",
    "4580532299387330189":"http://static.accesstrade.vn/logos/leflair.png",
    "4552405133802110510":"http://static.accesstrade.vn/logos/lotte.png",
    "4504410714291055830":"http://static.accesstrade.vn/advertisers/images/ferosh.png",
    "4549502475800231935":"http://static.accesstrade.vn/logos/ucancook.jpg",
    "4538594404235616956":"http://static.accesstrade.vn/logos/logo-alafi.png",
    "4537898875483188290":"http://i.imgur.com/9M3ogvOg.png",
    "4548059179763590968":"https://cdn.accesstrade.vn/logos/lazada_icon.jpg",
    "4514635650233281549":"http://i.imgur.com/jtHfgU7.png",
    "4493773597106589091":"http://static.accesstrade.vn/advertisers/images/dyoss/Dyoss-Logo.png",
    "4443698799439730014":"http://i.imgur.com/SUphlgy.png",
    "4486353705170609632":"http://i.imgur.com/ToO2Mbj.png",
    "4348614230663030600":"http://i.imgur.com/Kiydo1R.png",
    "4476874266957941015":"http://i.imgur.com/Nd73w02.png",
    "4391499829501717877":"http://i.imgur.com/bzPdcrs.jpg",
    "4468946113840027310":"http://i.imgur.com/D2ksfdd.jpg",
    "4348617685290060532":"https://static.accesstrade.vn/adv/img/logo/logo_1.png",
    "4420497792266085742":"http://i.imgur.com/UjO505a.png",
    "4351669776083415245":"https://static.accesstrade.vn/adv/img/logo/Logo-105x57a.png",
    "4402458928678335941":"http://i.imgur.com/kqH2hux.png",
    "4348617684673732938":"https://cdn.accesstrade.vn/logos/vienthonga.png",
    "4348614230772596393":"http://pub.accesstrade.vn/static/logos/adayroi.png",
    "4348617682862210998":"http://www.hieuhien.vn/Uploads/images/game-ung-dung/ung-dung/xem-phim/fpt-play-androidbox.png",
    "4348614231731445857":"https://cdn.accesstrade.vn/logos/careerbuilder.png",
    "4348617685127260471":"http://pub.accesstrade.vn/static/logos/kyna.png",
    "4348614231420117865":"https://cdn.accesstrade.vn/logos/begodi.png",
    "4348614231340585268":"http://pub.accesstrade.vn/static/logos/citibank.png",
    "4348617685007298674":"https://cdn.accesstrade.vn/logos/vinabook_icon.png",
    "4348614230854960401":"http://pub.accesstrade.vn/static/logos/Viviane.png",
    "4348614230549580029":"http://pub.accesstrade.vn/static/logos/Nguyen-Kim.png",
    "4348614230234254776":"http://pub.accesstrade.vn/static/logos/bookin.png",
    "4348614231659759053":"http://pub.accesstrade.vn/static/logos/YES.png"
}